<?xml version="1.0" standalone="no"?>
<svg
  height="600"
  viewBox="0 0 600 600"
  width="600"
  xmlns="http://www.w3.org/2000/svg"
>
  <g transform="translate(300,300)">
    <path
      d="M137.7,-177.1C163.2,-142.8,157.9,-84.8,163,-32.2C168.2,20.4,183.7,67.7,167.8,98.3C151.8,129,104.5,143,61.4,151C18.2,159.1,-20.6,161.3,-55.7,149.9C-90.8,138.5,-122,113.5,-138.4,81.6C-154.7,49.7,-156.1,11,-147.3,-23.7C-138.5,-58.4,-119.4,-88.9,-93.1,-123.1C-66.8,-157.3,-33.4,-195.2,11.4,-208.7C56.1,-222.2,112.3,-211.5,137.7,-177.1Z"
      fill="#f4f4f4"/>
  </g>
</svg>
