<?xml version="1.0" standalone="no"?>
<svg
  height="600"
  viewBox="0 0 600 600"
  width="600"
  xmlns="http://www.w3.org/2000/svg"
>
  <g transform="translate(300,300)">
    <path
      d="M151.8,-163.6C193.5,-146,221.8,-95,230.7,-41.2C239.5,12.6,228.9,69.3,204,122.9C179.1,176.4,140,226.8,89.6,244.3C39.2,261.9,-22.5,246.5,-58,211.1C-93.6,175.8,-103.1,120.4,-136.7,73.5C-170.3,26.5,-227.9,-11.9,-240.5,-60.1C-253.2,-108.4,-220.8,-166.4,-173.2,-183C-125.6,-199.6,-62.8,-174.8,-3.9,-170.2C55.1,-165.6,110.1,-181.2,151.8,-163.6Z"
      fill="#f4f4f4"/>
  </g>
</svg>
