<?xml version="1.0" standalone="no"?>
<svg
  height="600"
  viewBox="0 0 600 600"
  width="600"
  xmlns="http://www.w3.org/2000/svg"
>
  <g transform="translate(300,300)">
    <path
      d="M86.5,-92.1C121.1,-74,164.5,-55.3,185.6,-20.2C206.7,14.9,205.5,66.5,176.6,88.2C147.7,110,90.9,102,40,128.5C-10.8,155,-55.9,216.1,-83.6,213.2C-111.4,210.3,-122,143.4,-128,93.2C-134,43,-135.4,9.4,-124.9,-17.1C-114.4,-43.7,-91.9,-63.2,-69.1,-83.3C-46.3,-103.5,-23.1,-124.2,1.4,-125.9C25.9,-127.6,51.9,-110.1,86.5,-92.1Z"
      fill="#f4f4f4"/>
  </g>
</svg>
