{
  "$schema": "../schema/geojson.schema.json",
  "module_name": "provinces",
  "src": "/static/data/iran-provinces.json",
  "title": "Regions & Provinces",
  "visible_area": [5, 7],
  "style": [
    {
      "weight": 1,
      "opacity": 0.4,
      "color": "#fff",
      "fillOpacity": 0.4,
      "refer": { "label": "properties.name:en" }
    },
    {
      "switch": {
        "key": "properties.ISO3166-2",
        "IR-19": { "fillColor": "#6fb786", "region": "1" },
        "IR-21": { "fillColor": "#977fbb", "region": "1" },
        "IR-27": { "fillColor": "#b3b160", "region": "1" },
        "IR-01": { "fillColor": "#ca4f3f", "region": "2" },
        "IR-02": { "fillColor": "#7d98f5", "region": "2" },
        "IR-03": { "fillColor": "#d452bb", "region": "2" },
        "IR-11": { "fillColor": "#CADB47", "region": "2" },
        "IR-29": { "fillColor": "#eaa2b7", "region": "3" },
        "IR-30": { "fillColor": "#b95149", "region": "3" },
        "IR-31": { "fillColor": "#80DAE5", "region": "3" },
        "IR-05": { "fillColor": "#2892c4", "region": "4" },
        "IR-16": { "fillColor": "#e82372", "region": "4" },
        "IR-17": { "fillColor": "#8967e6", "region": "4" },
        "IR-20": { "fillColor": "#68DEBB", "region": "4" },
        "IR-22": { "fillColor": "#079577", "region": "4" },
        "IR-24": { "fillColor": "#cfccd6", "region": "4" },
        "IR-28": { "fillColor": "#c6274a", "region": "4" },
        "IR-04": { "fillColor": "#FFC42A", "region": "5" },
        "IR-08": { "fillColor": "#ed8932", "region": "5" },
        "IR-25": { "fillColor": "#0e60e6", "region": "5" },
        "IR-06": { "fillColor": "#675F99", "region": "6" },
        "IR-14": { "fillColor": "#42d193", "region": "6" },
        "IR-18": { "fillColor": "#a1a7f0", "region": "6" },
        "IR-07": { "fillColor": "#001fd7", "region": "7" },
        "IR-09": { "fillColor": "#96A65A", "region": "8" },
        "IR-12": { "fillColor": "#94823f", "region": "8" },
        "IR-26": { "fillColor": "#a7b6ab", "region": "8" },
        "IR-10": { "fillColor": "#8943AE", "region": "9" },
        "IR-13": { "fillColor": "#23FF99", "region": "10" },
        "IR-15": { "fillColor": "#ccd72a", "region": "10" },
        "IR-23": { "fillColor": "#72746f", "region": "10" }
      }
    }
  ],
  "defaults": {
    "_provinces": true
  },
  "layers": {},
  "information": false
}
