<?xml version="1.0" encoding="utf-8"?>
<!-- Generator: Adobe Illustrator 19.1.0, SVG Export Plug-In . SVG Version: 6.00 Build 0)  -->
<svg version="1.1" id="Capa_1" xmlns="http://www.w3.org/2000/svg" xmlns:xlink="http://www.w3.org/1999/xlink" x="0px" y="0px"
	 viewBox="733 164.9 512 512" style="enable-background:new 733 164.9 512 512;" xml:space="preserve">
<style type="text/css">
	.st0{fill:#CB3232;}
	.st1{fill:#0FAF4B;}
	.st2{fill:#FFFFFF;}
	.st3{fill:#939598;}
	.st4{opacity:0.6;}
	.st5{fill:#FFCB11;}
	.st6{opacity:0.9;}
</style>
<circle class="st3" cx="989" cy="420.9" r="256"/>
<g class="st4">
	<path d="M930.1,374v104.3h-13.8l-63.1-78.9v78.9h-14.9V374h14.7l62.1,77.8V374H930.1z"/>
	<path d="M1012.8,366.5l12.7,5.5l-57.1,115.7l-11.1-6.3L1012.8,366.5z"/>
	<path d="M1116.5,451.8h-50.1l-11.3,26.5h-15.7l45.2-104.3h15.4l45,104.3l-17.1,0.2L1116.5,451.8z M1110.8,438.3l-19.3-45.3
		l-19.3,45.3H1110.8z"/>
</g>
<g class="st4">
	<path d="M930.1,374v104.3h-13.8l-63.1-78.9v78.9h-14.9V374h14.7l62.1,77.8V374H930.1z"/>
	<path d="M1012.8,366.5l12.7,5.5l-57.1,115.7l-11.1-6.3L1012.8,366.5z"/>
	<path d="M1116.5,451.8h-50.1l-11.3,26.5h-15.7l45.2-104.3h15.4l45,104.3l-17.1,0.2L1116.5,451.8z M1110.8,438.3l-19.3-45.3
		l-19.3,45.3H1110.8z"/>
</g>
<g class="st4">
	<path d="M930.1,374v104.3h-13.8l-63.1-78.9v78.9h-14.9V374h14.7l62.1,77.8V374H930.1z"/>
	<path d="M1012.8,366.5l12.7,5.5l-57.1,115.7l-11.1-6.3L1012.8,366.5z"/>
	<path d="M1116.5,451.8h-50.1l-11.3,26.5h-15.7l45.2-104.3h15.4l45,104.3l-17.1,0.2L1116.5,451.8z M1110.8,438.3l-19.3-45.3
		l-19.3,45.3H1110.8z"/>
</g>
<g class="st4">
	<path d="M930.1,374v104.3h-13.8l-63.1-78.9v78.9h-14.9V374h14.7l62.1,77.8V374H930.1z"/>
	<path d="M1012.8,366.5l12.7,5.5l-57.1,115.7l-11.1-6.3L1012.8,366.5z"/>
	<path d="M1116.5,451.8h-50.1l-11.3,26.5h-15.7l45.2-104.3h15.4l45,104.3l-17.1,0.2L1116.5,451.8z M1110.8,438.3l-19.3-45.3
		l-19.3,45.3H1110.8z"/>
</g>
</svg>
