{
  "$schema": "http://json-schema.org/draft-07/schema",
  "$id": "features_schema",
  "title": "Features",
  "description": "Manage global GIS features",
  "type": "object",
  "required": [],
  "properties": {
    "population": {
      "type": "boolean",
      "default": true,
      "title": "Population layer"
    },
    "elevation": {
      "type": "boolean",
      "default": true,
      "title": "Elevation profile"
    },
    "ruler": {
      "type": "boolean",
      "default": true,
      "title": "Distance meter"
    },
    "custom_points": {
      "type": "string",
      "title": "Custom points"
    },
    "capture": {
      "type": "boolean",
      "default": true,
      "title": "Screen capture tool"
    }
  },
  "additionalProperties": {
    "type": "boolean",
    "default": true
  }
}
