{
  "$schema": "http://json-schema.org/draft-07/schema",
  "$id": "layers_schema",
  "title": "Layers",
  "description": "Boolean checkboxes or radio select items to send as param to the server when requesting data.\n'_' at the first of name will ignore params from the requests",
  "definitions": {
    "layer": {
      "type": "object",
      "required": [
        "label"
      ],
      "properties": {
        "type": {
          "type": "string",
          "default": "checkbox",
          "title": "Layer type",
          "description": "Checkbox or radio",
          "enum": [
            "checkbox",
            "radio"
          ]
        },
        "label": {
          "type": "string",
          "title": "Layer label",
          "description": "The visible text on the layer"
        },
        "name": {
          "type": "string",
          "title": "Data key name",
          "description": "The name must be set and must be same as other options when type is 'radio'"
        },
        "value": {
          "type": "string",
          "title": "Value",
          "description": "Use for radio buttons and filter mode"
        },
        "alt": {
          "type": "string",
          "title": "Alternative",
          "description": "Use as filter",
          "default": "filter"
        },
        "icon": {
          "type": "string",
          "title": "Icon class name",
          "description": "Use instead checkbox"
        },
        "color": {
          "type": "string",
          "title": "Icon color"
        },
        "desc": {
          "type": "string",
          "title": "Description",
          "description": "Shows as title"
        },
        "layers": {
          "$ref": "layers.schema.json"
        }
      },
      "additionalProperties": false
    },
    "defaults": {
      "type": "object",
      "title": "Default values for filters and layers",
      "description": "Add '_' + module name with true value to be active by default",
      "properties": {
        "_labels": {
          "type": "boolean",
          "title": "Fixed labels",
          "default": true
        },
        "_cluster": {
          "type": "boolean",
          "title": "Clustering",
          "default": true
        },
        "_autoFetch": {
          "type": "boolean",
          "title": "Auto Fetch",
          "default": false
        },
        "_autoFetchDelay": {
          "type": "number",
          "title": "Auto Fetch Delay",
          "description": "In milliseconds",
          "default": 10000
        }
      },
      "additionalProperties": true
    }
  },
  "type": "object",
  "properties": {},
  "additionalProperties": {
    "$ref": "#/definitions/layer"
  }
}
